Workshop Week 10
…
    # Store result
    results <- rbind(results, data.frame(tree = num_trees, fold = i, rss = rss))
  }
}

# 4. Average RMSE across folds for each tree setting
cv_summary <- results %>%
  group_by(tree) %>%
  summarise(cv_rmse = mean(rss), .groups = "drop")

print(cv_summary)

# A tibble: 28 × 2
    tree cv_rmse
   <dbl>   <dbl>
 1     1    676.
 2     6    371.
 3    11    346.
 4    16    338.
 5    21    335.
 6    26    330.
 7    31    329.
 8    36    327.
 9    41    323.
10    46    321.
# ℹ 18 more rows
…
